{
  "drinkmain": {
    "awscloudformation": {
      "AuthRoleName": "amplify-cocktailmakerclient-drinkmain-185928-authRole",
      "UnauthRoleArn": "arn:aws:iam::319706582121:role/amplify-cocktailmakerclient-drinkmain-185928-unauthRole",
      "AuthRoleArn": "arn:aws:iam::319706582121:role/amplify-cocktailmakerclient-drinkmain-185928-authRole",
      "Region": "eu-west-2",
      "DeploymentBucketName": "amplify-cocktailmakerclient-drinkmain-185928-deployment",
      "UnauthRoleName": "amplify-cocktailmakerclient-drinkmain-185928-unauthRole",
      "StackName": "amplify-cocktailmakerclient-drinkmain-185928",
      "StackId": "arn:aws:cloudformation:eu-west-2:319706582121:stack/amplify-cocktailmakerclient-drinkmain-185928/38191b90-85e4-11ec-8c91-061c732917b2",
      "AmplifyAppId": "dmn50vualhr98"
    },
    "categories": {
      "auth": {
        "cocktailmakerclient04e373c8": {}
      }
    }
  }
}